…
    library(tidyverse)

Example data
------------

    set.seed(1234)
    normals <- rnorm(n = 1000, mean = 5, sd = 1.3)
    normals_2 <- rnorm(1000, mean = 1.5, sd = 0.2)

    df <- tibble(A = normals,
                 B = normals_2)

    df

    ## # A tibble: 1,000 x 2
    ##        A     B
    ##    <dbl> <dbl>
    ##  1  3.43  1.26
    ##  2  5.36  1.56
    ##  3  6.41  1.19
    ##  4  1.95  1.63
    ##  5  5.56  1.64
    ##  6  5.66  1.12
    ##  7  4.25  1.69
    ##  8  4.29  1.46
    ##  9  4.27  1.37
    ## 10  3.84  1.59
    ## # ... with 990 more rows
…
