…
    pub_plot

    ## # A tibble: 10,545 x 10
    ##    country  year infant_mortality life_expectancy fertility population      gdp continent
    ##    <chr>   <int>            <dbl>           <dbl>     <dbl>      <dbl>    <dbl> <fct>    
    ##  1 Albania  1960            115.             62.9      6.19    1636054 NA       Europe   
    ##  2 Algeria  1960            148.             47.5      7.65   11124892  1.38e10 Africa   
    ##  3 Angola   1960            208              36.0      7.32    5270844 NA       Africa   
    ##  4 Antigu~  1960             NA              63.0      4.43      54681 NA       Americas 
    ##  5 Argent~  1960             59.9            65.4      3.11   20619075  1.08e11 Americas 
    ##  6 Armenia  1960             NA              66.9      4.55    1867396 NA       Asia     
    ##  7 Aruba    1960             NA              65.7      4.82      54208 NA       Americas 
    ##  8 Austra~  1960             20.3            70.9      3.45   10292328  9.67e10 Oceania  
    ##  9 Austria  1960             37.3            68.8      2.7     7065525  5.24e10 Europe   
    ## 10 Azerba~  1960             NA              61.3      5.57    3897889 NA       Asia     
    ## # ... with 10,535 more rows, and 2 more variables: region <fct>, group <chr>
…
    ## Parsed with column specification:
    ## cols(
    ##   earn = col_double(),
    ##   height = col_double(),
    ##   sex = col_character(),
    ##   ed = col_double(),
    ##   age = col_double(),
    ##   race = col_character()
    ## )

    heights_data

    ## # A tibble: 1,192 x 6
    ##     earn height sex       ed   age race    
    ##    <dbl>  <dbl> <chr>  <dbl> <dbl> <chr>   
    ##  1 50000   74.4 male      16    45 white   
    ##  2 60000   65.5 female    16    58 white   
    ##  3 30000   63.6 female    16    29 white   
    ##  4 50000   63.1 female    16    91 other   
    ##  5 51000   63.4 female    17    39 white   
    ##  6  9000   64.4 female    15    26 white   
    ##  7 29000   61.7 female    12    49 white   
    ##  8 32000   72.7 male      17    46 white   
    ##  9  2000   72.0 male      15    21 hispanic
    ## 10 27000   72.2 male      12    26 white   
    ## # ... with 1,182 more rows
…
